…
- **`who.tsv`**: Information about TB cases in various countries from
  1980 to 2013 (Source: 2014 WHO Global Tuberculosis Report).

- **`population.csv`**: Population data of each country across time
  (Source: The World Bank).

# 2. Import

#### 2.1. Preview the contents of **`who.tsv`** and **`population.csv`** by inspecting the files.

``` r
who
```

    ## # A tibble: 7,240 × 60
    ##    country  iso2  iso3   year new_sp_m014 new_sp_m1524 new_sp_m2534 new_sp_m3544
    ##    <chr>    <chr> <chr> <dbl>       <dbl>        <dbl>        <dbl>        <dbl>
    ##  1 Afghani… AF    AFG    1980          NA           NA           NA           NA
    ##  2 Afghani… AF    AFG    1981          NA           NA           NA           NA
    ##  3 Afghani… AF    AFG    1982          NA           NA           NA           NA
    ##  4 Afghani… AF    AFG    1983          NA           NA           NA           NA
    ##  5 Afghani… AF    AFG    1984          NA           NA           NA           NA
    ##  6 Afghani… AF    AFG    1985          NA           NA           NA           NA
    ##  7 Afghani… AF    AFG    1986          NA           NA           NA           NA
    ##  8 Afghani… AF    AFG    1987          NA           NA           NA           NA
    ##  9 Afghani… AF    AFG    1988          NA           NA           NA           NA
    ## 10 Afghani… AF    AFG    1989          NA           NA           NA           NA
    ## # ℹ 7,230 more rows
    ## # ℹ 52 more variables: new_sp_m4554 <dbl>, new_sp_m5564 <dbl>,
    ## #   new_sp_m65 <dbl>, new_sp_f014 <dbl>, new_sp_f1524 <dbl>,
    ## #   new_sp_f2534 <dbl>, new_sp_f3544 <dbl>, new_sp_f4554 <dbl>,
    ## #   new_sp_f5564 <dbl>, new_sp_f65 <dbl>, new_sn_m014 <dbl>,
    ## #   new_sn_m1524 <dbl>, new_sn_m2534 <dbl>, new_sn_m3544 <dbl>,
    ## #   new_sn_m4554 <dbl>, new_sn_m5564 <dbl>, new_sn_m65 <dbl>, …

``` r
population
```

    ## # A tibble: 4,060 × 3
    ##    country      year population
    ##    <chr>       <dbl>      <dbl>
    ##  1 Afghanistan  1995   17586073
    ##  2 Afghanistan  1996   18415307
    ##  3 Afghanistan  1997   19021226
    ##  4 Afghanistan  1998   19496836
    ##  5 Afghanistan  1999   19987071
    ##  6 Afghanistan  2000   20595360
    ##  7 Afghanistan  2001   21347782
    ##  8 Afghanistan  2002   22202806
    ##  9 Afghanistan  2003   23116142
    ## 10 Afghanistan  2004   24018682
    ## # ℹ 4,050 more rows
…
``` r
who2 <- who %>% 
  pivot_longer(
    cols = new_sp_m014:newrel_f65, 
    names_to = "key", 
    values_to = "cases", 
    values_drop_na = TRUE
  ) %>%
  mutate(names_from = stringr::str_replace(key, "newrel", "new_rel"))
who2
```

    ## # A tibble: 76,046 × 7
    ##    country     iso2  iso3   year key          cases names_from  
    ##    <chr>       <chr> <chr> <dbl> <chr>        <dbl> <chr>       
    ##  1 Afghanistan AF    AFG    1997 new_sp_m014      0 new_sp_m014 
    ##  2 Afghanistan AF    AFG    1997 new_sp_m1524    10 new_sp_m1524
    ##  3 Afghanistan AF    AFG    1997 new_sp_m2534     6 new_sp_m2534
    ##  4 Afghanistan AF    AFG    1997 new_sp_m3544     3 new_sp_m3544
    ##  5 Afghanistan AF    AFG    1997 new_sp_m4554     5 new_sp_m4554
    ##  6 Afghanistan AF    AFG    1997 new_sp_m5564     2 new_sp_m5564
    ##  7 Afghanistan AF    AFG    1997 new_sp_m65       0 new_sp_m65  
    ##  8 Afghanistan AF    AFG    1997 new_sp_f014      5 new_sp_f014 
    ##  9 Afghanistan AF    AFG    1997 new_sp_f1524    38 new_sp_f1524
    ## 10 Afghanistan AF    AFG    1997 new_sp_f2534    36 new_sp_f2534
    ## # ℹ 76,036 more rows
…
A modified version has now been successfully saved as ‘who3’.

#### 3.1.4 Further separate values like `f014` into `f` and `014`, storing the result in `who_tidy`.

``` r
who_tidy <- who3 %>% 
  separate(sexage, c("sex", "age"), sep = 1)
who_tidy
```

    ## # A tibble: 76,046 × 8
    ##    country     iso2  iso3   year cases type  sex   age  
    ##    <chr>       <chr> <chr> <dbl> <dbl> <chr> <chr> <chr>
    ##  1 Afghanistan AF    AFG    1997     0 sp    m     014  
    ##  2 Afghanistan AF    AFG    1997    10 sp    m     1524 
    ##  3 Afghanistan AF    AFG    1997     6 sp    m     2534 
    ##  4 Afghanistan AF    AFG    1997     3 sp    m     3544 
    ##  5 Afghanistan AF    AFG    1997     5 sp    m     4554 
    ##  6 Afghanistan AF    AFG    1997     2 sp    m     5564 
    ##  7 Afghanistan AF    AFG    1997     0 sp    m     65   
    ##  8 Afghanistan AF    AFG    1997     5 sp    f     014  
    ##  9 Afghanistan AF    AFG    1997    38 sp    f     1524 
    ## 10 Afghanistan AF    AFG    1997    36 sp    f     2534 
    ## # ℹ 76,036 more rows
…
#### 3.3.2 Rename columns as needed to align variable names between datasets.

There is no need to rename columns since the variable names are already
aligned.

#### 3.3.3 Join the datasets into a tibble called `tuberculosis`.

``` r
tuberculosis <- who_tidy %>% left_join(population_tidy, by=c("country","year"))
tuberculosis
```

    ## # A tibble: 76,046 × 9
    ##    country     iso2  iso3   year cases type  sex   age   population
    ##    <chr>       <chr> <chr> <dbl> <dbl> <chr> <chr> <chr>      <dbl>
    ##  1 Afghanistan AF    AFG    1997     0 sp    m     014     19021226
    ##  2 Afghanistan AF    AFG    1997    10 sp    m     1524    19021226
    ##  3 Afghanistan AF    AFG    1997     6 sp    m     2534    19021226
    ##  4 Afghanistan AF    AFG    1997     3 sp    m     3544    19021226
    ##  5 Afghanistan AF    AFG    1997     5 sp    m     4554    19021226
    ##  6 Afghanistan AF    AFG    1997     2 sp    m     5564    19021226
    ##  7 Afghanistan AF    AFG    1997     0 sp    m     65      19021226
    ##  8 Afghanistan AF    AFG    1997     5 sp    f     014     19021226
    ##  9 Afghanistan AF    AFG    1997    38 sp    f     1524    19021226
    ## 10 Afghanistan AF    AFG    1997    36 sp    f     2534    19021226
    ## # ℹ 76,036 more rows
…
For efficiency, these three steps will be done simultaneously. The
“unnecessary variables” in question will just be ‘iso2’ and ‘iso3’ since
they are simply country codes.

``` r
tuberculosis <- tuberculosis %>%
  select(-iso2, -iso3) %>%
  na.omit()
```

``` r
tuberculosis
```

    ## # A tibble: 75,234 × 7
    ##    country      year cases type  sex   age   population
    ##    <chr>       <dbl> <dbl> <chr> <chr> <chr>      <dbl>
    ##  1 Afghanistan  1997     0 sp    m     014     19021226
    ##  2 Afghanistan  1997    10 sp    m     1524    19021226
    ##  3 Afghanistan  1997     6 sp    m     2534    19021226
    ##  4 Afghanistan  1997     3 sp    m     3544    19021226
    ##  5 Afghanistan  1997     5 sp    m     4554    19021226
    ##  6 Afghanistan  1997     2 sp    m     5564    19021226
    ##  7 Afghanistan  1997     0 sp    m     65      19021226
    ##  8 Afghanistan  1997     5 sp    f     014     19021226
    ##  9 Afghanistan  1997    38 sp    f     1524    19021226
    ## 10 Afghanistan  1997    36 sp    f     2534    19021226
    ## # ℹ 75,224 more rows
…
    ##      Sex Cases
    ## 1   Male 77867
    ## 2 Female 45768

As observed, there are more TB cases in the 21st century in the USA that
are **Male**.

#### 4.2 Create a new variable, `cases_per_100k`, representing TB cases per 100,000 people by year, sex, age group, and TB type.

``` r
tuberculosis['cases_per_100k'] = 100000 * (tuberculosis['cases'] / tuberculosis['population'])
tuberculosis
```

    ## # A tibble: 75,234 × 8
    ##    country      year cases type  sex   age   population cases_per_100k
    ##    <chr>       <dbl> <dbl> <chr> <chr> <chr>      <dbl>          <dbl>
    ##  1 Afghanistan  1997     0 sp    m     014     19021226         0     
    ##  2 Afghanistan  1997    10 sp    m     1524    19021226         0.0526
    ##  3 Afghanistan  1997     6 sp    m     2534    19021226         0.0315
    ##  4 Afghanistan  1997     3 sp    m     3544    19021226         0.0158
    ##  5 Afghanistan  1997     5 sp    m     4554    19021226         0.0263
    ##  6 Afghanistan  1997     2 sp    m     5564    19021226         0.0105
    ##  7 Afghanistan  1997     0 sp    m     65      19021226         0     
    ##  8 Afghanistan  1997     5 sp    f     014     19021226         0.0263
    ##  9 Afghanistan  1997    38 sp    f     1524    19021226         0.200 
    ## 10 Afghanistan  1997    36 sp    f     2534    19021226         0.189 
    ## # ℹ 75,224 more rows

#### 4.3 Identify: ○ The country and year with the highest cases per 100k. ○ The country and year with the lowest cases per 100k.

``` r
grouped_tb <- tuberculosis %>%
  group_by(country, year) %>%
  summarise(total_cases_per_100k = sum(cases_per_100k), .groups = 'drop') %>%
  ungroup()
grouped_tb
```

    ## # A tibble: 3,432 × 3
    ##    country      year total_cases_per_100k
    ##    <chr>       <dbl>                <dbl>
    ##  1 Afghanistan  1997                0.673
    ##  2 Afghanistan  1998                9.12 
    ##  3 Afghanistan  1999                3.73 
    ##  4 Afghanistan  2000               12.9  
    ##  5 Afghanistan  2001               21.7  
    ##  6 Afghanistan  2002               29.3  
    ##  7 Afghanistan  2003               28.2  
    ##  8 Afghanistan  2004               34.3  
    ##  9 Afghanistan  2005               40.0  
    ## 10 Afghanistan  2006               48.6  
    ## # ℹ 3,422 more rows
``` r
highest_rate <- grouped_tb %>%
  filter(total_cases_per_100k == max(total_cases_per_100k)) %>%
  mutate(category = "Highest")

lowest_rate <- grouped_tb %>%
  filter(total_cases_per_100k == min(total_cases_per_100k)) %>%
  mutate(category = "Lowest")

record_rates <- bind_rows(highest_rate, lowest_rate)

record_rates
```

    ## # A tibble: 49 × 4
    ##    country                            year total_cases_per_100k category
    ##    <chr>                             <dbl>                <dbl> <chr>   
    ##  1 Swaziland                          2010                 813. Highest 
    ##  2 Anguilla                           2004                   0  Lowest  
    ##  3 Anguilla                           2011                   0  Lowest  
    ##  4 Anguilla                           2012                   0  Lowest  
    ##  5 Anguilla                           2013                   0  Lowest  
    ##  6 Barbados                           2011                   0  Lowest  
    ##  7 Barbados                           2012                   0  Lowest  
    ##  8 Bermuda                            2004                   0  Lowest  
    ##  9 Bermuda                            2013                   0  Lowest  
    ## 10 Bonaire, Saint Eustatius and Saba  2010                   0  Lowest  
    ## # ℹ 39 more rows
…
## 5.3. Create a plot to evaluate whether the number of cases per 100k in 2000 was related to a country’s population:

#### Conclude based on the visualization.

``` r
tb_2000 <- tuberculosis %>%
  filter(year == 2000) %>%
  group_by(country, population) %>%
  summarise(total_cases_per_100k = sum(cases_per_100k, na.rm = TRUE), .groups = 'drop')

tb_2000
```

    ## # A tibble: 169 × 3
    ##    country             population total_cases_per_100k
    ##    <chr>                    <dbl>                <dbl>
    ##  1 Afghanistan           20595360                12.9 
    ##  2 Albania                3304948                 5.17
    ##  3 Algeria               31719449                25.4 
    ##  4 American Samoa           57522                 5.22
    ##  5 Andorra                  65399                 1.53
    ##  6 Angola                13924930                58.5 
    ##  7 Antigua and Barbuda      77648                 5.15
    ##  8 Argentina             36903067                12.2 
    ##  9 Armenia                3076098                20.2 
    ## 10 Australia             19259377                 1.30
    ## # ℹ 159 more rows
…
