…
- Import the data into a tibble called mlb_raw and print it.

- How many rows and columns does the data have?

- Does this match up with the data description given above?

**Solution.**

``` r
load('ml_pay.rdata')
mlb_raw <- as_tibble(ml_pay)
mlb_raw
```

    ## # A tibble: 30 × 54
    ##    payroll avgwin Team.name.2014 p1998 p1999 p2000 p2001 p2002 p2003 p2004 p2005
    ##      <dbl>  <dbl> <fct>          <dbl> <dbl> <dbl> <dbl> <dbl> <dbl> <dbl> <dbl>
    ##  1   1.12   0.490 Arizona Diamo…  31.6  70.5  81.0  81.2 103.   80.6  70.2  63.0
    ##  2   1.38   0.553 Atlanta Braves  61.7  74.9  84.5  91.9  93.5 106.   88.5  85.1
    ##  3   1.16   0.454 Baltimore Ori…  71.9  72.2  81.4  72.4  60.5  73.9  51.2  74.6
    ##  4   1.97   0.549 Boston Red Sox  59.5  71.7  77.9 110.  108.   99.9 125.  121. 
    ##  5   1.46   0.474 Chicago Cubs    49.8  42.1  60.5  64.0  75.7  79.9  91.1  87.2
    ##  6   1.32   0.511 Chicago White…  35.2  24.5  31.1  62.4  57.1  51.0  65.2  75.2
    ##  7   1.02   0.486 Cincinnati Re…  20.7  73.3  46.9  45.2  45.1  59.4  43.1  59.7
    ##  8   0.999  0.496 Cleveland Ind…  59.5  54.4  75.9  92.0  78.9  48.6  34.6  41.8
    ##  9   1.03   0.463 Colorado Rock…  47.7  55.4  61.1  71.1  56.9  67.2  64.6  47.8
    ## 10   1.43   0.482 Detroit Tigers  19.2  35.0  58.3  49.8  55.0  49.2  46.4  69.0
    ## # ℹ 20 more rows
    ## # ℹ 43 more variables: p2006 <dbl>, p2007 <dbl>, p2008 <dbl>, p2009 <dbl>,
    ## #   p2010 <dbl>, p2011 <dbl>, p2012 <dbl>, p2013 <dbl>, p2014 <dbl>,
    ## #   X2014 <int>, X2013 <int>, X2012 <int>, X2011 <int>, X2010 <int>,
    ## #   X2009 <int>, X2008 <int>, X2007 <int>, X2006 <int>, X2005 <int>,
    ## #   X2004 <int>, X2003 <int>, X2002 <int>, X2001 <int>, X2000 <int>,
    ## #   X1999 <int>, X1998 <int>, X2014.pct <dbl>, X2013.pct <dbl>, …
…
**Solution.**

``` r
mlb_aggregate <- mlb_raw %>%
  select(Team.name.2014,payroll,avgwin) %>% # select relevant columns
  rename(team = Team.name.2014, # renaming
         payroll_aggregate = payroll,
         pct_wins_aggregate = avgwin)
mlb_aggregate
```

    ## # A tibble: 30 × 3
    ##    team                 payroll_aggregate pct_wins_aggregate
    ##    <fct>                            <dbl>              <dbl>
    ##  1 Arizona Diamondbacks             1.12               0.490
    ##  2 Atlanta Braves                   1.38               0.553
    ##  3 Baltimore Orioles                1.16               0.454
    ##  4 Boston Red Sox                   1.97               0.549
    ##  5 Chicago Cubs                     1.46               0.474
    ##  6 Chicago White Sox                1.32               0.511
    ##  7 Cincinnati Reds                  1.02               0.486
    ##  8 Cleveland Indians                0.999              0.496
    ##  9 Colorado Rockies                 1.03               0.463
    ## 10 Detroit Tigers                   1.43               0.482
    ## # ℹ 20 more rows
…
    ## Warning: Expected 2 pieces. Missing pieces filled with `NA` in 1020 rows [1, 2, 3, 4, 5,
    ## 6, 7, 8, 9, 10, 11, 12, 13, 14, 15, 16, 17, 18, 19, 20, ...].

``` r
mlb_yearly
```

    ## # A tibble: 510 × 5
    ##    team                 year  payroll num_wins pct_wins
    ##    <fct>                <chr>   <dbl>    <dbl>    <dbl>
    ##  1 Arizona Diamondbacks 1998     31.6       65    0.399
    ##  2 Arizona Diamondbacks 1999     70.5      100    0.613
    ##  3 Arizona Diamondbacks 2000     81.0       85    0.525
    ##  4 Arizona Diamondbacks 2001     81.2       92    0.568
    ##  5 Arizona Diamondbacks 2002    103.        98    0.605
    ##  6 Arizona Diamondbacks 2003     80.6       84    0.519
    ##  7 Arizona Diamondbacks 2004     70.2       51    0.315
    ##  8 Arizona Diamondbacks 2005     63.0       77    0.475
    ##  9 Arizona Diamondbacks 2006     59.7       76    0.469
    ## 10 Arizona Diamondbacks 2007     52.1       90    0.552
    ## # ℹ 500 more rows
…
**Solution.**

``` r
mlb_aggregate_computed <- mlb_yearly %>%
  group_by(team) %>%
  summarise(
    payroll_aggregate_computed = sum(payroll)/1000,
    pct_wins_aggregate_computed = mean(pct_wins)
  )
mlb_aggregate_computed
```

    ## # A tibble: 30 × 3
    ##    team                 payroll_aggregate_computed pct_wins_aggregate_computed
    ##    <fct>                                     <dbl>                       <dbl>
    ##  1 Arizona Diamondbacks                       1.22                       0.492
    ##  2 Atlanta Braves                             1.52                       0.563
    ##  3 Baltimore Orioles                          1.31                       0.457
    ##  4 Boston Red Sox                             2.10                       0.551
    ##  5 Chicago Cubs                               1.55                       0.475
    ##  6 Chicago White Sox                          1.38                       0.507
    ##  7 Cincinnati Reds                            1.12                       0.491
    ##  8 Cleveland Indians                          1.11                       0.505
    ##  9 Colorado Rockies                           1.13                       0.463
    ## 10 Detroit Tigers                             1.48                       0.474
    ## # ℹ 20 more rows

``` r
mlb_aggregate_joined <- mlb_aggregate %>% 
  left_join(mlb_aggregate_computed, by = "team")
mlb_aggregate_joined
```

    ## # A tibble: 30 × 5
    ##    team              payroll_aggregate pct_wins_aggregate payroll_aggregate_co…¹
    ##    <fct>                         <dbl>              <dbl>                  <dbl>
    ##  1 Arizona Diamondb…             1.12               0.490                   1.22
    ##  2 Atlanta Braves                1.38               0.553                   1.52
    ##  3 Baltimore Orioles             1.16               0.454                   1.31
    ##  4 Boston Red Sox                1.97               0.549                   2.10
    ##  5 Chicago Cubs                  1.46               0.474                   1.55
    ##  6 Chicago White Sox             1.32               0.511                   1.38
    ##  7 Cincinnati Reds               1.02               0.486                   1.12
    ##  8 Cleveland Indians             0.999              0.496                   1.11
    ##  9 Colorado Rockies              1.03               0.463                   1.13
    ## 10 Detroit Tigers                1.43               0.482                   1.48
    ## # ℹ 20 more rows
    ## # ℹ abbreviated name: ¹​payroll_aggregate_computed
    ## # ℹ 1 more variable: pct_wins_aggregate_computed <dbl>
…
